{
	"$schema": "https://schemas.wp.org/trunk/block.json",
	"apiVersion": 2,
	"name": "acf/cpl-acf-test-case",
	"version": "0.1.0",
	"title": "Cpl Acf Test Case",
	"category": "widgets",
	"icon": "smiley",
	"description": "Example block scaffolded with Create Block tool.",
	"supports": {
		"html": false
	},
	"acf": {
		"mode": "preview",
		"renderTemplate": "../block-rendering.php",
		"blockVersion": 2
	  },
	"textdomain": "cpl-acf-test-case",
	"editorScript": "file:./index.js",
	"editorStyle": "file:./index.css",
	"style": "file:./style-index.css"
}
